{
    "KPlugin": {
        "Category": "Accessibility",
        "Description": "Creates an animation whenever a mouse button is clicked. This is useful for screenrecordings/presentations",
        "Description[az]": "Hər siçan düyməsini vurduqda animaisya yaradır. Bu adətən ekrandan video yazdıqda və ya təqdimat üçün istifadə olunur.",
        "Description[ca]": "Crea una animació quan es fa clic amb un botó del ratolí. Això és útil per a enregistrar la pantalla o en presentacions",
        "Description[cs]": "Vytvoří animaci při každém kliknutí myši. Toto je užitečné pro nahrávání obrazovky nebo prezentace",
        "Description[es]": "Crea una animación cada vez que se pulsa un botón del ratón. Resulta útil durante la grabación de la pantalla y las presentaciones.",
        "Description[fr]": "Crée une animation associée à un clic sur un bouton de la souris. Ceci est utile pour les enregistrements d'écran ou les présentations.",
        "Description[ia]": "Crea un animation quando un button de mus es pressate. Isto es util pro registrationes de schermo/presentationes",
        "Description[it]": "Crea un'animazione nel momento in cui viene premuto un pulsante del mouse. Ciò è utile per la registrazione dello schermo o per le presentazioni.",
        "Description[nl]": "Maakt een animatie wanneer op een muisknop wordt geklikt. Dit is nuttig voor schermopnamen/presentaties",
        "Description[pl]": "Tworzy animację przy każdym kliknięciu klawiszem myszy. Jest to użyteczne przy nagrywaniu ekranu/prezentacjach",
        "Description[sl]": "Ustvari animacijo, ko kliknete miškin gumb. To je koristno za posnetke zaslona oz. predstavitve",
        "Description[sv]": "Skapar en animering så fort en musknapp klickas. Det är användbart för skärminspelningar och presentationer",
        "Description[uk]": "Створення анімацій у відповідь на клацання кнопкою миші. Корисне для записів демонстрацій та презентацій.",
        "Description[vi]": "Tạo một hiệu ứng động khi một nút chuột được bấm. Có ích khi quay phim màn hình / thuyết trình",
        "Description[x-test]": "xxCreates an animation whenever a mouse button is clicked. This is useful for screenrecordings/presentationsxx",
        "Description[zh_CN]": "鼠标按键按下时显示动效，在进行录屏演示时非常有用",
        "EnabledByDefault": false,
        "Id": "mouseclick",
        "License": "GPL",
        "Name": "Mouse Click Animation",
        "Name[az]": "Siçan kliki animasiyası",
        "Name[ca]": "Animació en fer clic amb el ratolí",
        "Name[cs]": "Animace kliknutí myši",
        "Name[es]": "Animación del clic del ratón",
        "Name[fr]": "Animation du clic de la souris",
        "Name[ia]": "Animation de click de mus",
        "Name[it]": "Animazione del clic del mouse",
        "Name[nl]": "Animatie van muisklik",
        "Name[pl]": "Animacja kliknięcia myszą",
        "Name[pt]": "Animação do Botão do Rato",
        "Name[sl]": "Animacija klika z miško",
        "Name[sv]": "Animering av musklick",
        "Name[uk]": "Анімація за клацанням миші",
        "Name[vi]": "Hiệu ứng động khi bấm chuột",
        "Name[x-test]": "xxMouse Click Animationxx",
        "Name[zh_CN]": "鼠标点击动效",
        "ServiceTypes": [
            "KWin/Effect"
        ]
    },
    "X-KDE-ConfigModule": "kwin_mouseclick_config",
    "org.kde.kwin.effect": {
        "video": "https://files.kde.org/plasma/kwin/effect-videos/mouse_click.mp4"
    }
}
